Field Experiment Analysis
…
# Check:

speaker_avgs

## # A tibble: 143 x 5
## # Groups:   ID, Language, Sex [143]
##    ID    Language Sex     Age   ACC
##    <chr> <chr>    <chr> <dbl> <dbl>
##  1 DE04  DE       f        47 0.889
##  2 DE18  DE       f        23 0.861
##  3 DE11  DE       f        40 0.806
##  4 US24  EN       m        21 0.806
##  5 BE51  EN       f        19 0.778
##  6 BR19  BR       f        23 0.778
##  7 DE09  DE       f        47 0.778
##  8 DE13  DE       f        20 0.778
##  9 DE20  DE       f        21 0.778
## 10 BE21  EN       f        20 0.75 
## #  with 133 more rows
…
