Web Experiment Analysis
…
languages

##  [1] "AL" "AM" "CN" "DE" "DK" "EE" "EN" "ES" "FA" "FR" "GE" "GR" "HU" "IT"
## [15] "JP" "KR" "PL" "PT" "RO" "RU" "SE" "TH" "TR" "ZU"

Put this into a tibble:

meanings_per_language <- tibble(Language = languages)
meanings_per_language$N_over_chance <- NA

# Check:

meanings_per_language

## # A tibble: 24 x 2
##    Language N_over_chance
##    <chr>    <lgl>        
##  1 AL       NA           
##  2 AM       NA           
##  3 CN       NA           
##  4 DE       NA           
##  5 DK       NA           
##  6 EE       NA           
##  7 EN       NA           
##  8 ES       NA           
##  9 FA       NA           
## 10 FR       NA           
## #  with 14 more rows
…
